[
  {
    "title": "Каталог подарков",
    "href": "index.html#products",
    "subitems": false
  },
  {
    "title": "Как формируется подарок",
    "href": "index.html#howto",
    "subitems": false
  },
  {
    "title": "Контакты",
    "href": "index.html#contacts",
    "subitems": false
  }
]
